\begin{tikzpicture}
	\usetikzlibrary{decorations.pathreplacing}
	\filldraw[color=white!40, draw=black, rounded corners=1pt ] (0,0) rectangle (20,2);
	\filldraw[color=white!40, draw=black, rounded corners=1pt ] (0,0) rectangle (4,2);
	\filldraw[color=white!40, draw=black, rounded corners=1pt ] (4,0) rectangle (8,2);
	\filldraw[color=white!40, draw=black, rounded corners=1pt ] (8,0) rectangle (12,2);
	\filldraw[color=white!40, draw=black, rounded corners=1pt ] (12,0) rectangle (16,2);
	\filldraw[color=white!40, draw=black, rounded corners=1pt ] (16,0) rectangle (20,2);
	%\filldraw[color=white!40, draw=black, rounded corners=1pt ] (15,0) rectangle (19,2);
	
	\draw [decorate,decoration={brace,amplitude=10pt, mirror},xshift=0pt,yshift=0pt]
		(0,-0.1) -- (20,-0.1) node [black,midway,xshift=0cm, yshift=-0.8cm] {$10$ Bytes};
		
	\draw [decorate,decoration={brace,amplitude=10pt},xshift=0pt,yshift=0pt]
		(0,2.1) -- (4,2.1) node [black,midway, yshift=1cm] {Batterie};
	
	\draw [decorate,decoration={brace,amplitude=10pt},xshift=0pt,yshift=0pt]
		(4,2.1) -- (8,2.1) node [black,midway, yshift=1cm] {Temperatur};
	
	\draw [decorate,decoration={brace,amplitude=10pt},xshift=0pt,yshift=0pt]
		(8,2.1) -- (12,2.1) node [black,midway, yshift=1cm] {Luft-Druck};
	
	\draw [decorate,decoration={brace,amplitude=10pt},xshift=0pt,yshift=0pt]
		(12,2.1) -- (16,2.1) node [black,midway, yshift=1cm] {Luft-Feuchte};
	
	\draw [decorate,decoration={brace,amplitude=10pt},xshift=0pt,yshift=0pt]
		(16,2.1) -- (20,2.1) node [black,midway, yshift=1cm] {CO2-Konzentration};


\end{tikzpicture}